^F:\UNI WORK\L5\ADVANCED GEC\OPENGL_SDL BASE PROJECT\OPENGL_SDL BASE PROJECT\DEBUG\3DSLOADER.SBR|F:\UNI WORK\L5\ADVANCED GEC\OPENGL_SDL BASE PROJECT\OPENGL_SDL BASE PROJECT\DEBUG\CAMERA.SBR|F:\UNI WORK\L5\ADVANCED GEC\OPENGL_SDL BASE PROJECT\OPENGL_SDL BASE PROJECT\DEBUG\GAMESCREEN.SBR|F:\UNI WORK\L5\ADVANCED GEC\OPENGL_SDL BASE PROJECT\OPENGL_SDL BASE PROJECT\DEBUG\GAMESCREENLEVEL1.SBR|F:\UNI WORK\L5\ADVANCED GEC\OPENGL_SDL BASE PROJECT\OPENGL_SDL BASE PROJECT\DEBUG\GAMESCREENMANAGER.SBR|F:\UNI WORK\L5\ADVANCED GEC\OPENGL_SDL BASE PROJECT\OPENGL_SDL BASE PROJECT\DEBUG\OBJECT3DS.SBR|F:\UNI WORK\L5\ADVANCED GEC\OPENGL_SDL BASE PROJECT\OPENGL_SDL BASE PROJECT\DEBUG\PYRAMID.SBR|F:\UNI WORK\L5\ADVANCED GEC\OPENGL_SDL BASE PROJECT\OPENGL_SDL BASE PROJECT\DEBUG\SOURCE.SBR|F:\UNI WORK\L5\ADVANCED GEC\OPENGL_SDL BASE PROJECT\OPENGL_SDL BASE PROJECT\DEBUG\TEXTURE.SBR
/nologo /o"F:\UNI WORK\L5\ADVANCED GEC\OPENGL_SDL BASE PROJECT\DEBUG\OPENGL_SDL BASE PROJECT.BSC" /n DEBUG\3DSLOADER.SBR DEBUG\CAMERA.SBR DEBUG\GAMESCREEN.SBR DEBUG\GAMESCREENLEVEL1.SBR DEBUG\GAMESCREENMANAGER.SBR DEBUG\OBJECT3DS.SBR DEBUG\PYRAMID.SBR DEBUG\SOURCE.SBR DEBUG\TEXTURE.SBR
^E:\UNI WORK\L5\ADVANCED GEC\OPENGL_SDL BASE PROJECT\OPENGL_SDL BASE PROJECT\DEBUG\3DSLOADER.SBR|E:\UNI WORK\L5\ADVANCED GEC\OPENGL_SDL BASE PROJECT\OPENGL_SDL BASE PROJECT\DEBUG\CAMERA.SBR|E:\UNI WORK\L5\ADVANCED GEC\OPENGL_SDL BASE PROJECT\OPENGL_SDL BASE PROJECT\DEBUG\GAMESCREEN.SBR|E:\UNI WORK\L5\ADVANCED GEC\OPENGL_SDL BASE PROJECT\OPENGL_SDL BASE PROJECT\DEBUG\GAMESCREENLEVEL1.SBR|E:\UNI WORK\L5\ADVANCED GEC\OPENGL_SDL BASE PROJECT\OPENGL_SDL BASE PROJECT\DEBUG\GAMESCREENMANAGER.SBR|E:\UNI WORK\L5\ADVANCED GEC\OPENGL_SDL BASE PROJECT\OPENGL_SDL BASE PROJECT\DEBUG\OBJECT3DS.SBR|E:\UNI WORK\L5\ADVANCED GEC\OPENGL_SDL BASE PROJECT\OPENGL_SDL BASE PROJECT\DEBUG\PYRAMID.SBR|E:\UNI WORK\L5\ADVANCED GEC\OPENGL_SDL BASE PROJECT\OPENGL_SDL BASE PROJECT\DEBUG\SOURCE.SBR|E:\UNI WORK\L5\ADVANCED GEC\OPENGL_SDL BASE PROJECT\OPENGL_SDL BASE PROJECT\DEBUG\TEXTURE.SBR
/nologo /o"E:\UNI WORK\L5\ADVANCED GEC\OPENGL_SDL BASE PROJECT\DEBUG\OPENGL_SDL BASE PROJECT.BSC" /n DEBUG\3DSLOADER.SBR DEBUG\CAMERA.SBR DEBUG\GAMESCREEN.SBR DEBUG\GAMESCREENLEVEL1.SBR DEBUG\GAMESCREENMANAGER.SBR DEBUG\OBJECT3DS.SBR DEBUG\PYRAMID.SBR DEBUG\SOURCE.SBR DEBUG\TEXTURE.SBR
